Project#1
…
Joining/Merging

Both the district and the SATscores1 datasets were joined by the use of merge, and they were merged together on the basis of district names. As mentioned above, certain columns were removed from the dataset because of their irrelevance. Before the merging, both data sets were edited on Excel so that all the district names were capitalized since R was not able to understand that the uncapitalized and capitalized versions of the district names were the same.

newproject <- project %>% select(-c(YR20, HEADING, SECTION, `AGGREGATION LEVEL`, ERW)) %>%   na.omit()

Wrangling

As seen by the data below, Hispanic students scored the majority of the lowest total SAT scores, while white students had the highest SAT scores. Each of these ethnicities were also divided into whether or not these children had any disabilities, and were economically disadvantaged or not. Going along with the scores, students who scored high on the math portion of the SAT's usually ended up scoring high on the reading portions as well, overall giving them a higher total SAT score.

newproject1 <- newproject %>% select(-c(REGION, DISTRICT, CHARTER_STATUS)) %>% distinct()
names(newproject1)[names(newproject1) == "Group"] <- "Ethnicity"
newproject1 %>% group_by(Ethnicity)

## # A tibble: 56,921 x 17
## # Groups:   Ethnicity [36]
##    DISTNAME `HEADING NAME` Ethnicity DistName County CntyName Region RegnName
##    <chr>    <chr>          <chr>     <chr>    <chr>  <chr>    <chr>  <chr>   
##  1 KATHERI… SPEC. ED. STU… Not Home… Katheri… 105    Hays Co… 13     Austin  
##  2 KATHERI… SPEC. ED. STU… Female    Katheri… 105    Hays Co… 13     Austin  
##  3 KATHERI… SPEC. ED. STU… Not Bil/… Katheri… 105    Hays Co… 13     Austin  
##  4 KATHERI… SPEC. ED. STU… Not Econ… Katheri… 105    Hays Co… 13     Austin  
##  5 KATHERI… SPEC. ED. STU… Not At-R… Katheri… 105    Hays Co… 13     Austin  
##  6 KATHERI… SPEC. ED. STU… Not Spec… Katheri… 105    Hays Co… 13     Austin  
##  7 KATHERI… SPEC. ED. STU… Title1    Katheri… 105    Hays Co… 13     Austin  
##  8 KATHERI… SPEC. ED. STU… Not CTE   Katheri… 105    Hays Co… 13     Austin  
##  9 KATHERI… SPEC. ED. STU… Not Dysl… Katheri… 105    Hays Co… 13     Austin  
## 10 KATHERI… SPEC. ED. STU… All Stud… Katheri… 105    Hays Co… 13     Austin  
## # … with 56,911 more rows, and 9 more variables: Math <chr>, Total <chr>,
## #   Grads_Mskd <chr>, Exnees_Mskd <chr>, Part_Rate <chr>, Crit_Mskd <chr>,
## #   Above_Crit_Rate <chr>, TSI_Both_Mskd <chr>, Above_TSI_Both_Rate <chr>
…
